{
  /* Visit https://firebase.google.com/docs/database/security to learn more about security rules. */
  "rules": {
    "users": {
      "$uid": {
        ".write": "$uid === auth.uid",
        ".read": "$uid === auth.uid"
      }
    },
    "categories": {
      ".write": false,
       ".read": true
    }
  }
}